<?xml version="1.0" encoding="UTF-8" standalone="no"?>
<svg
   xmlns:dc="http://purl.org/dc/elements/1.1/"
   xmlns:cc="http://creativecommons.org/ns#"
   xmlns:rdf="http://www.w3.org/1999/02/22-rdf-syntax-ns#"
   xmlns:svg="http://www.w3.org/2000/svg"
   xmlns="http://www.w3.org/2000/svg"
   xmlns:sodipodi="http://sodipodi.sourceforge.net/DTD/sodipodi-0.dtd"
   xmlns:inkscape="http://www.inkscape.org/namespaces/inkscape"
   version="1.0"
   width="45mm"
   height="45mm"
   id="svg4217"
   inkscape:version="0.91 r13725"
   viewBox="0 0 44.999999 44.999999"
   sodipodi:docname="Nokia5110_8c.svg">
  <metadata
     id="metadata4274">
    <rdf:RDF>
      <cc:Work
         rdf:about="">
        <dc:format>image/svg+xml</dc:format>
        <dc:type
           rdf:resource="http://purl.org/dc/dcmitype/StillImage" />
        <dc:title></dc:title>
      </cc:Work>
    </rdf:RDF>
  </metadata>
  <sodipodi:namedview
     pagecolor="#ffffff"
     bordercolor="#666666"
     borderopacity="1"
     objecttolerance="10"
     gridtolerance="10"
     guidetolerance="10"
     inkscape:pageopacity="0"
     inkscape:pageshadow="2"
     inkscape:window-width="1855"
     inkscape:window-height="1176"
     id="namedview4272"
     inkscape:document-units="mm"
     showgrid="false"
     inkscape:zoom="4.2960494"
     inkscape:cx="79.724409"
     inkscape:cy="79.724409"
     inkscape:window-x="65"
     inkscape:window-y="24"
     inkscape:window-maximized="1"
     inkscape:current-layer="g4196" />
  <defs
     id="defs4219" />
  <g
     inkscape:groupmode="layer"
     id="layer1"
     inkscape:label="Silkscreen"
     style="display:inline">
    <rect
       style="fill:none;fill-opacity:1;stroke:#000000;stroke-width:0.97826093;stroke-miterlimit:4;stroke-dasharray:none;stroke-opacity:1"
       id="rect4180"
       width="44.021736"
       height="44.02174"
       x="0.48913047"
       y="0.48912898" />
  </g>
  <g
     inkscape:groupmode="layer"
     id="layer2"
     inkscape:label="Breadboard"
     style="display:inline;opacity:0.98999999">
    <rect
       style="fill:#ac3223;fill-opacity:1;stroke:#ac3223;stroke-width:0.17628767;stroke-miterlimit:4;stroke-dasharray:none;stroke-opacity:1"
       id="rect4888"
       width="44.823711"
       height="44.823711"
       x="0.088143833"
       y="0.088145033" />
    <path
       style="fill:#fefefe;fill-opacity:1;fill-rule:nonzero;stroke:#fefefe;stroke-width:0.04664278px;stroke-linecap:round;stroke-linejoin:round;stroke-miterlimit:4;stroke-dasharray:none;stroke-opacity:1"
       d="m 42.508643,5.9210844 0,0 0,33.6760796 0,0 -40.1594101,0 0,0 0,-33.6760796 0,0 40.1594101,0 z"
       id="path4224"
       inkscape:connector-curvature="0" />
    <path
       style="fill:#808080;fill-opacity:1;stroke:none"
       inkscape:connector-curvature="0"
       id="path10"
       d="m 7.24981,11.992414 c -1.5961826,0.2892 -2.8721863,1.36541 -3.3807039,2.8541 -0.2354252,0.68745 -0.2307165,0.4504 -0.2307165,10.56775 0,8.49119 0.00471,9.48207 0.075335,9.81394 0.1506731,0.73012 0.4896848,1.37964 1.0264544,1.94382 0.7062753,0.75383 1.4878873,1.16155 2.599092,1.36542 0.3813896,0.0664 1.7939403,0.0711 15.368549,0.0616 l 14.949493,-0.0142 0.414347,-0.13275 c 1.214794,-0.38402 2.123534,-1.1331 2.646177,-2.18561 0.442601,-0.89606 0.404932,0.18964 0.404932,-11.05135 l 0,-9.95616 -0.141255,-0.3935 c -0.329597,-0.93398 -0.866364,-1.63566 -1.652685,-2.17613 -0.433181,-0.29395 -1.130039,-0.59263 -1.553805,-0.65901 -0.103586,-0.019 -0.202464,-0.0521 -0.216591,-0.0711 -0.01412,-0.0237 -6.56365,-0.0427 -14.98245,-0.0379 -12.6187842,0.005 -15.0154115,0.0142 -15.3261733,0.0711 z" />
  </g>
  <g
     inkscape:groupmode="layer"
     id="layer4"
     inkscape:label="HOLES"
     style="display:inline">
    <path
       style="display:inline;opacity:0.98999999;fill:#ffffff;fill-opacity:1;fill-rule:nonzero;stroke:#000000;stroke-width:0.1804589px;stroke-linecap:round;stroke-linejoin:round;stroke-miterlimit:4;stroke-dasharray:none;stroke-opacity:1"
       d="m 2.4999997,41.090225 0.1364292,0 0.1364294,0.04481 0.1364293,0 0.1364295,0.04472 0.1364293,0.08953 0.090952,0.04481 0.1364294,0.08943 0.090953,0.08953 0.090953,0.08943 0.090952,0.134298 0.045477,0.08953 0.090953,0.13425 0.045477,0.134288 0,0.134289 0.045477,0.13425 0,0.13424 0,0.179023 -0.045477,0.134288 0,0.134298 -0.045477,0.134241 -0.090953,0.13424 -0.045477,0.08953 -0.090952,0.134241 -0.090953,0.08953 -0.090953,0.08953 -0.1364294,0.08953 -0.090952,0.04472 -0.1364293,0.08953 -0.1364295,0.04472 -0.1364293,0 -0.1364294,0.04472 -0.1364292,0 -0.1364294,0 -0.1364293,-0.04472 -0.1364293,0 -0.1364295,-0.04472 -0.1364294,-0.08953 -0.090952,-0.04472 -0.1364293,-0.08953 -0.090953,-0.08953 -0.090953,-0.08953 -0.090953,-0.134241 -0.045477,-0.08953 -0.090953,-0.13424 -0.045476,-0.134241 0,-0.134298 -0.045477,-0.134288 0,-0.179023 0,-0.13424 0.045477,-0.13425 0,-0.134289 0.045476,-0.134288 0.090953,-0.13425 0.045477,-0.08953 0.090953,-0.134298 0.090953,-0.08943 0.090953,-0.08953 0.1364293,-0.08943 0.090952,-0.04481 0.1364294,-0.08953 0.1364295,-0.04472 0.1364293,0 0.1364293,-0.04481 0.1364294,0 z"
       id="path4226"
       inkscape:connector-curvature="0" />
    <path
       style="display:inline;opacity:0.98999999;fill:#ffffff;fill-opacity:1;fill-rule:nonzero;stroke:#000000;stroke-width:0.2;stroke-linecap:round;stroke-linejoin:round;stroke-miterlimit:4;stroke-dasharray:none;stroke-opacity:1"
       d="m 42.500001,41.090282 0.136407,0 0.136454,0.04481 0.136453,0 0.136407,0.04472 0.136405,0.08953 0.09101,0.04481 0.136404,0.08943 0.09096,0.08953 0.09096,0.08943 0.09096,0.134298 0.04545,0.08953 0.09101,0.13425 0.04545,0.134288 0,0.134289 0.04545,0.13425 0,0.13424 0,0.179023 -0.04545,0.134288 0,0.134298 -0.04545,0.134241 -0.09101,0.13424 -0.04545,0.08953 -0.09096,0.13424 -0.09096,0.08953 -0.09096,0.08953 -0.136404,0.08953 -0.09101,0.04472 -0.136405,0.08953 -0.136407,0.04472 -0.136453,0 -0.136454,0.04472 -0.136407,0 -0.136406,0 -0.136453,-0.04472 -0.136455,0 -0.136406,-0.04472 -0.136406,-0.08953 -0.09101,-0.04472 -0.136405,-0.08953 -0.09096,-0.08953 -0.09095,-0.08953 -0.09096,-0.13424 -0.04545,-0.08953 -0.09101,-0.13424 -0.04545,-0.134241 0,-0.134298 -0.04545,-0.134288 0,-0.179023 0,-0.13424 0.04545,-0.13425 0,-0.134289 0.04545,-0.134288 0.09101,-0.13425 0.04545,-0.08953 0.09096,-0.134298 0.09095,-0.08943 0.09096,-0.08953 0.136405,-0.08943 0.09101,-0.04481 0.136406,-0.08953 0.136406,-0.04472 0.136455,0 0.136453,-0.04481 0.136406,0 z"
       id="path4228"
       inkscape:connector-curvature="0" />
    <path
       style="display:inline;opacity:0.98999999;fill:#ffffff;fill-opacity:1;fill-rule:nonzero;stroke:#000000;stroke-width:0.1804599px;stroke-linecap:round;stroke-linejoin:round;stroke-miterlimit:4;stroke-dasharray:none;stroke-opacity:1"
       d="m 2.4999991,1.0902276 0.1364295,0 0.1364293,0.044715 0.1364297,0 0.1364294,0.044715 0.1364295,0.089527 0.090952,0.044715 0.1364295,0.089527 0.090953,0.089527 0.090953,0.089527 0.090953,0.1342707 0.045477,0.089527 0.090952,0.1342706 0.045477,0.1342611 0,0.1342706 0.045477,0.1342707 0,0.1342706 0,0.1790244 -0.045477,0.1342707 0,0.1342706 -0.045477,0.1342612 -0.090952,0.1342707 -0.045477,0.089527 -0.090953,0.1342706 -0.090953,0.089527 -0.090953,0.089527 -0.1364295,0.089527 -0.090952,0.044715 -0.1364295,0.089527 -0.1364294,0.044715 -0.1364297,0 -0.1364293,0.044715 -0.1364295,0 -0.1364296,0 -0.1364293,-0.044715 -0.1364295,0 L 1.9542811,3.820337 1.8178516,3.7308105 1.7268997,3.6860951 1.5904703,3.5965686 1.4995173,3.507042 1.4085653,3.4175155 1.3176124,3.2832448 1.2721359,3.1937183 1.1811829,3.0594476 1.1357065,2.9251864 l 0,-0.1342706 -0.045476,-0.1342708 0,-0.1790243 0,-0.1342707 0.045476,-0.1342706 0,-0.1342706 0.045477,-0.1342611 0.090953,-0.1342706 0.045477,-0.089527 0.090953,-0.1342706 0.090952,-0.089527 0.090953,-0.089526 0.1364294,-0.089527 0.090952,-0.044715 0.1364294,-0.089527 0.1364297,-0.044715 0.1364295,0 0.1364293,-0.044715 0.1364296,0 z"
       id="path4230"
       inkscape:connector-curvature="0" />
    <path
       style="display:inline;opacity:0.98999999;fill:#ffffff;fill-opacity:1;fill-rule:nonzero;stroke:#000000;stroke-width:0.18045883px;stroke-linecap:round;stroke-linejoin:round;stroke-miterlimit:4;stroke-dasharray:none;stroke-opacity:1"
       d="m 42.500005,1.090229 0.136451,0 0.136405,0.044715 0.136404,0 0.13645,0.044715 0.136452,0.089527 0.0909,0.044715 0.136452,0.089527 0.09096,0.089527 0.09096,0.089527 0.09096,0.1342612 0.04549,0.089527 0.0909,0.1342707 0.04549,0.1342707 0,0.1342611 0.0455,0.1342708 0,0.1342708 0,0.1790244 -0.0455,0.1342708 0,0.1342706 -0.04549,0.1342708 -0.0909,0.1342707 -0.04549,0.089527 -0.09096,0.1342707 -0.09096,0.089527 -0.09096,0.089526 -0.136452,0.089527 -0.0909,0.044715 -0.136452,0.089527 -0.13645,0.044715 -0.136404,0 -0.136405,0.044715 -0.136451,0 -0.136452,0 -0.136404,-0.044715 -0.136404,0 -0.13645,-0.044715 -0.136453,-0.089527 -0.0909,-0.044715 -0.136451,-0.089527 -0.09096,-0.089526 -0.09096,-0.089527 -0.09096,-0.1342707 -0.0455,-0.089527 -0.0909,-0.1342707 -0.0455,-0.1342708 0,-0.1342706 -0.04549,-0.1342708 0,-0.1790244 0,-0.1342708 0.04549,-0.1342708 0,-0.1342611 0.0455,-0.1342707 0.0909,-0.1342707 0.0455,-0.089527 0.09096,-0.1342612 0.09096,-0.089527 0.09096,-0.089527 0.136451,-0.089527 0.0909,-0.044715 0.136453,-0.089527 0.13645,-0.044715 0.136404,0 0.136404,-0.044715 0.136452,0 z"
       id="path4232"
       inkscape:connector-curvature="0" />
  </g>
  <g
     inkscape:groupmode="layer"
     id="layer3"
     inkscape:label="COPPER"
     style="display:inline">
    <circle
       style="display:inline;fill:#ffffff;fill-opacity:1;stroke:#f7bd13;stroke-width:0.36559549;stroke-miterlimit:4;stroke-dasharray:none;stroke-opacity:1"
       id="path4158"
       cx="31.134501"
       cy="42.313499"
       r="0.97970223" />
    <circle
       style="display:inline;fill:#ffffff;fill-opacity:1;stroke:#f7bd13;stroke-width:0.36559549;stroke-miterlimit:4;stroke-dasharray:none;stroke-opacity:1"
       id="path4158-3"
       cx="28.5945"
       cy="42.313499"
       r="0.97970229" />
    <circle
       style="display:inline;fill:#ffffff;fill-opacity:1;stroke:#f7bd13;stroke-width:0.36559549;stroke-miterlimit:4;stroke-dasharray:none;stroke-opacity:1"
       id="path4158-6"
       cx="26.054501"
       cy="42.313499"
       r="0.97970229" />
    <circle
       style="display:inline;fill:#ffffff;fill-opacity:1;stroke:#f7bd13;stroke-width:0.36559549;stroke-miterlimit:4;stroke-dasharray:none;stroke-opacity:1"
       id="path4158-7"
       cx="23.5145"
       cy="42.313499"
       r="0.97970229" />
    <circle
       style="display:inline;fill:#ffffff;fill-opacity:1;stroke:#f7bd13;stroke-width:0.36559549;stroke-miterlimit:4;stroke-dasharray:none;stroke-opacity:1"
       id="path4158-5"
       cx="20.974501"
       cy="42.313499"
       r="0.97970229" />
    <circle
       style="display:inline;fill:#ffffff;fill-opacity:1;stroke:#f7bd13;stroke-width:0.36559549;stroke-miterlimit:4;stroke-dasharray:none;stroke-opacity:1"
       id="path4158-35"
       cx="18.4345"
       cy="42.313499"
       r="0.97970229" />
    <circle
       style="display:inline;fill:#ffffff;fill-opacity:1;stroke:#f7bd13;stroke-width:0.36559549;stroke-miterlimit:4;stroke-dasharray:none;stroke-opacity:1"
       id="path4158-62"
       cx="15.8945"
       cy="42.313499"
       r="0.97970229" />
    <rect
       style="display:inline;fill:#ffffff;fill-opacity:1;stroke:#f7bd13;stroke-width:0.34815025;stroke-miterlimit:4;stroke-dasharray:none;stroke-opacity:1"
       id="rect4249-1"
       width="1.9668497"
       height="1.9668498"
       x="12.366076"
       y="41.335075" />
    <circle
       style="display:inline;fill:#ffffff;fill-opacity:1;stroke:#f7bd13;stroke-width:0.36559549;stroke-miterlimit:4;stroke-dasharray:none;stroke-opacity:1"
       id="path4158-9"
       cx="31.134501"
       cy="2.5625"
       r="0.97970229" />
    <circle
       style="display:inline;fill:#ffffff;fill-opacity:1;stroke:#f7bd13;stroke-width:0.36559549;stroke-miterlimit:4;stroke-dasharray:none;stroke-opacity:1"
       id="path4158-1"
       cx="28.5945"
       cy="2.5695136"
       r="0.97970229" />
    <circle
       style="display:inline;fill:#ffffff;fill-opacity:1;stroke:#f7bd13;stroke-width:0.36559549;stroke-miterlimit:4;stroke-dasharray:none;stroke-opacity:1"
       id="path4158-2"
       cx="26.054501"
       cy="2.5625"
       r="0.97970229" />
    <circle
       style="display:inline;fill:#ffffff;fill-opacity:1;stroke:#f7bd13;stroke-width:0.36559549;stroke-miterlimit:4;stroke-dasharray:none;stroke-opacity:1"
       id="path4158-70"
       cx="23.505461"
       cy="2.5625"
       r="0.97970229" />
    <circle
       style="display:inline;fill:#ffffff;fill-opacity:1;stroke:#f7bd13;stroke-width:0.36559549;stroke-miterlimit:4;stroke-dasharray:none;stroke-opacity:1"
       id="path4158-93"
       cx="20.974501"
       cy="2.5625"
       r="0.97970229" />
    <circle
       style="display:inline;fill:#ffffff;fill-opacity:1;stroke:#f7bd13;stroke-width:0.36559549;stroke-miterlimit:4;stroke-dasharray:none;stroke-opacity:1"
       id="path4158-60"
       cx="18.433466"
       cy="2.5625"
       r="0.97970229" />
    <circle
       style="display:inline;fill:#ffffff;fill-opacity:1;stroke:#f7bd13;stroke-width:0.3556;stroke-miterlimit:4;stroke-dasharray:none;stroke-opacity:1"
       id="path4158-626"
       cx="15.886295"
       cy="2.5674977"
       r="0.97970229" />
    <rect
       style="display:inline;fill:#ffffff;fill-opacity:1;stroke:#f7bd13;stroke-width:0.34815025;stroke-miterlimit:4;stroke-dasharray:none;stroke-opacity:1"
       id="rect4249"
       width="1.9668497"
       height="1.9668498"
       x="12.366076"
       y="1.5840751" />
  </g>
  <g
     style="display:none"
     inkscape:label="PINS"
     id="g4196"
     inkscape:groupmode="layer">
    <circle
       r="0.97970223"
       cy="42.313499"
       cx="31.134501"
       id="circle4198"
       style="display:inline;fill:#ffffff;fill-opacity:1;stroke:#f7bd13;stroke-width:0.36559549;stroke-miterlimit:4;stroke-dasharray:none;stroke-opacity:1" />
    <circle
       r="0.97970229"
       cy="42.313499"
       cx="28.5945"
       id="circle4200"
       style="display:inline;fill:#ffffff;fill-opacity:1;stroke:#f7bd13;stroke-width:0.36559549;stroke-miterlimit:4;stroke-dasharray:none;stroke-opacity:1" />
    <circle
       r="0.97970229"
       cy="42.313499"
       cx="26.054501"
       id="circle4202"
       style="display:inline;fill:#ffffff;fill-opacity:1;stroke:#f7bd13;stroke-width:0.36559549;stroke-miterlimit:4;stroke-dasharray:none;stroke-opacity:1" />
    <circle
       r="0.97970229"
       cy="42.313499"
       cx="23.5145"
       id="circle4204"
       style="display:inline;fill:#ffffff;fill-opacity:1;stroke:#f7bd13;stroke-width:0.36559549;stroke-miterlimit:4;stroke-dasharray:none;stroke-opacity:1" />
    <circle
       r="0.97970229"
       cy="42.313499"
       cx="20.974501"
       id="circle4206"
       style="display:inline;fill:#ffffff;fill-opacity:1;stroke:#f7bd13;stroke-width:0.36559549;stroke-miterlimit:4;stroke-dasharray:none;stroke-opacity:1" />
    <circle
       r="0.97970229"
       cy="42.313499"
       cx="18.4345"
       id="circle4208"
       style="display:inline;fill:#ffffff;fill-opacity:1;stroke:#f7bd13;stroke-width:0.36559549;stroke-miterlimit:4;stroke-dasharray:none;stroke-opacity:1" />
    <circle
       r="0.97970229"
       cy="42.313499"
       cx="15.8945"
       id="circle4210"
       style="display:inline;fill:#ffffff;fill-opacity:1;stroke:#f7bd13;stroke-width:0.36559549;stroke-miterlimit:4;stroke-dasharray:none;stroke-opacity:1" />
    <rect
       y="41.335075"
       x="12.366076"
       height="1.9668498"
       width="1.9668497"
       id="rect4212"
       style="display:inline;fill:#ffffff;fill-opacity:1;stroke:#f7bd13;stroke-width:0.34815025;stroke-miterlimit:4;stroke-dasharray:none;stroke-opacity:1" />
    <text
       xml:space="preserve"
       style="font-style:normal;font-variant:normal;font-weight:normal;font-stretch:normal;font-size:1.23472226px;line-height:125%;font-family:'Droid Sans';-inkscape-font-specification:'Droid Sans, Normal';text-align:start;letter-spacing:0px;word-spacing:0px;writing-mode:lr-tb;text-anchor:start;fill:#000000;fill-opacity:1;stroke:none;stroke-width:1px;stroke-linecap:butt;stroke-linejoin:miter;stroke-opacity:1"
       x="-40.741077"
       y="13.742323"
       id="text4302"
       sodipodi:linespacing="125%"
       transform="matrix(0,-1,1,0,0,0)"><tspan
         sodipodi:role="line"
         id="tspan4304"
         x="-40.741077"
         y="13.742323"
         style="font-style:normal;font-variant:normal;font-weight:normal;font-stretch:normal;font-size:1.23472226px;line-height:125%;font-family:'Droid Sans';-inkscape-font-specification:'Droid Sans, Normal';text-align:start;writing-mode:lr-tb;text-anchor:start">Vcc</tspan></text>
    <text
       xml:space="preserve"
       style="font-style:normal;font-variant:normal;font-weight:normal;font-stretch:normal;font-size:1.23472226px;line-height:125%;font-family:'Droid Sans';-inkscape-font-specification:'Droid Sans, Normal';text-align:start;letter-spacing:0px;word-spacing:0px;writing-mode:lr-tb;text-anchor:start;fill:#000000;fill-opacity:1;stroke:none;stroke-width:1px;stroke-linecap:butt;stroke-linejoin:miter;stroke-opacity:1"
       x="-40.800762"
       y="16.31315"
       id="text4306"
       sodipodi:linespacing="125%"
       transform="matrix(0,-1,1,0,0,0)"
       inkscape:transform-center-x="-1.8880337"
       inkscape:transform-center-y="-1.2847567"><tspan
         sodipodi:role="line"
         id="tspan4308"
         x="-40.800762"
         y="16.31315"
         style="font-style:normal;font-variant:normal;font-weight:normal;font-stretch:normal;font-size:1.23472226px;line-height:125%;font-family:'Droid Sans';-inkscape-font-specification:'Droid Sans, Normal';text-align:start;writing-mode:lr-tb;text-anchor:start">Gnd</tspan></text>
    <text
       xml:space="preserve"
       style="font-style:normal;font-variant:normal;font-weight:normal;font-stretch:normal;font-size:1.23472226px;line-height:125%;font-family:'Droid Sans';-inkscape-font-specification:'Droid Sans, Normal';text-align:start;letter-spacing:0px;word-spacing:0px;writing-mode:lr-tb;text-anchor:start;fill:#000000;fill-opacity:1;stroke:none;stroke-width:1px;stroke-linecap:butt;stroke-linejoin:miter;stroke-opacity:1"
       x="-40.81282"
       y="18.854136"
       id="text4310"
       sodipodi:linespacing="125%"
       transform="matrix(0,-1,1,0,0,0)"><tspan
         sodipodi:role="line"
         id="tspan4312"
         x="-40.81282"
         y="18.854136"
         style="font-style:normal;font-variant:normal;font-weight:normal;font-stretch:normal;font-size:1.23472226px;line-height:125%;font-family:'Droid Sans';-inkscape-font-specification:'Droid Sans, Normal';text-align:start;writing-mode:lr-tb;text-anchor:start">SCE</tspan></text>
    <text
       xml:space="preserve"
       style="font-style:normal;font-variant:normal;font-weight:normal;font-stretch:normal;font-size:1.23472226px;line-height:125%;font-family:'Droid Sans';-inkscape-font-specification:'Droid Sans, Normal';text-align:start;letter-spacing:0px;word-spacing:0px;writing-mode:lr-tb;text-anchor:start;fill:#000000;fill-opacity:1;stroke:none;stroke-width:1px;stroke-linecap:butt;stroke-linejoin:miter;stroke-opacity:1"
       x="-40.852612"
       y="21.405972"
       id="text4314"
       sodipodi:linespacing="125%"
       transform="matrix(0,-1,1,0,0,0)"
       inkscape:transform-center-x="-1.8321747"
       inkscape:transform-center-y="-15.148957"><tspan
         sodipodi:role="line"
         id="tspan4316"
         x="-40.852612"
         y="21.405972"
         style="font-style:normal;font-variant:normal;font-weight:normal;font-stretch:normal;font-size:1.23472226px;line-height:125%;font-family:'Droid Sans';-inkscape-font-specification:'Droid Sans, Normal';text-align:start;writing-mode:lr-tb;text-anchor:start">RST</tspan></text>
    <text
       xml:space="preserve"
       style="font-style:normal;font-variant:normal;font-weight:normal;font-stretch:normal;font-size:1.23472226px;line-height:125%;font-family:'Droid Sans';-inkscape-font-specification:'Droid Sans, Normal';text-align:start;letter-spacing:0px;word-spacing:0px;writing-mode:lr-tb;text-anchor:start;fill:#000000;fill-opacity:1;stroke:none;stroke-width:1px;stroke-linecap:butt;stroke-linejoin:miter;stroke-opacity:1"
       x="-40.852612"
       y="23.909275"
       id="text4318"
       sodipodi:linespacing="125%"
       transform="matrix(0,-1,1,0,0,0)"><tspan
         sodipodi:role="line"
         id="tspan4320"
         x="-40.852612"
         y="23.909275"
         style="font-style:normal;font-variant:normal;font-weight:normal;font-stretch:normal;font-size:1.23472226px;line-height:125%;font-family:'Droid Sans';-inkscape-font-specification:'Droid Sans, Normal';text-align:start;writing-mode:lr-tb;text-anchor:start">D/C</tspan></text>
    <text
       xml:space="preserve"
       style="font-style:normal;font-variant:normal;font-weight:normal;font-stretch:normal;font-size:1.23472226px;line-height:125%;font-family:'Droid Sans';-inkscape-font-specification:'Droid Sans, Normal';text-align:start;letter-spacing:0px;word-spacing:0px;writing-mode:lr-tb;text-anchor:start;fill:#000000;fill-opacity:1;stroke:none;stroke-width:1px;stroke-linecap:butt;stroke-linejoin:miter;stroke-opacity:1"
       x="-40.852612"
       y="26.447245"
       id="text4322"
       sodipodi:linespacing="125%"
       transform="matrix(0,-1,1,0,0,0)"><tspan
         sodipodi:role="line"
         id="tspan4324"
         x="-40.852612"
         y="26.447245"
         style="font-style:normal;font-variant:normal;font-weight:normal;font-stretch:normal;font-size:1.23472226px;line-height:125%;font-family:'Droid Sans';-inkscape-font-specification:'Droid Sans, Normal';text-align:start;writing-mode:lr-tb;text-anchor:start">DN (MOSI)</tspan></text>
    <text
       xml:space="preserve"
       style="font-style:normal;font-variant:normal;font-weight:normal;font-stretch:normal;font-size:1.23472226px;line-height:125%;font-family:'Droid Sans';-inkscape-font-specification:'Droid Sans, Normal';text-align:start;letter-spacing:0px;word-spacing:0px;writing-mode:lr-tb;text-anchor:start;fill:#000000;fill-opacity:1;stroke:none;stroke-width:1px;stroke-linecap:butt;stroke-linejoin:miter;stroke-opacity:1"
       x="-40.81282"
       y="29.061483"
       id="text4326"
       sodipodi:linespacing="125%"
       transform="matrix(0,-1,1,0,0,0)"><tspan
         sodipodi:role="line"
         id="tspan4328"
         x="-40.81282"
         y="29.061483"
         style="font-style:normal;font-variant:normal;font-weight:normal;font-stretch:normal;font-size:1.23472226px;line-height:125%;font-family:'Droid Sans';-inkscape-font-specification:'Droid Sans, Normal';text-align:start;writing-mode:lr-tb;text-anchor:start">SCLK</tspan></text>
    <text
       xml:space="preserve"
       style="font-style:normal;font-variant:normal;font-weight:normal;font-stretch:normal;font-size:1.23472226px;line-height:125%;font-family:'Droid Sans';-inkscape-font-specification:'Droid Sans, Normal';text-align:start;letter-spacing:0px;word-spacing:0px;writing-mode:lr-tb;text-anchor:start;fill:#000000;fill-opacity:1;stroke:none;stroke-width:1px;stroke-linecap:butt;stroke-linejoin:miter;stroke-opacity:1"
       x="-40.852612"
       y="31.613918"
       id="text4330"
       sodipodi:linespacing="125%"
       transform="matrix(0,-1,1,0,0,0)"><tspan
         sodipodi:role="line"
         id="tspan4332"
         x="-40.852612"
         y="31.613918"
         style="font-style:normal;font-variant:normal;font-weight:normal;font-stretch:normal;font-size:1.23472226px;line-height:125%;font-family:'Droid Sans';-inkscape-font-specification:'Droid Sans, Normal';text-align:start;writing-mode:lr-tb;text-anchor:start">LED</tspan></text>
  </g>
</svg>
